\relax 
\citation{SafirFlom}
\citation{DaugmanPatent}
\citation{gonzalez2008}
\citation{kevin2009factors}
\citation{Baker2009}
\citation{Baker2013}
\citation{Fenker2011}
\@writefile{toc}{\contentsline {section}{\numberline {1} Introduction}{}}
\newlabel{sec:intro}{{1}{}}
\@writefile{toc}{\contentsline {section}{\numberline {2} Related work}{}}
\newlabel{sec:related}{{2}{}}
\citation{Fenker2012}
\citation{Czajka2013}
\citation{Sazonova}
\citation{Schegrova}
\citation{ISO}
\citation{BiomIrisSDK}
\@writefile{toc}{\contentsline {section}{\numberline {3} Data}{}}
\newlabel{sec:data}{{3}{}}
\@writefile{lof}{\contentsline {figure}{\numberline {1}{\ignorespaces Samples from sessions in 2003 (left) and 2010 (right).}}{}}
\newlabel{biobase}{{1}{}}
\@writefile{lof}{\contentsline {figure}{\numberline {2}{\ignorespaces Sample images that were discarded from the dataset.}}{}}
\newlabel{biobasediscarded}{{2}{}}
\@writefile{toc}{\contentsline {section}{\numberline {4} Experimental methodology}{}}
\newlabel{sec:methodology}{{4}{}}
\citation{Sazonova}
\citation{BiomIrisSDK}
\citation{CzajkaPacut}
\citation{VeriEye}
\citation{Brize}
\citation{DaugmanArticle}
\citation{Sazonova}
\@writefile{toc}{\contentsline {subsection}{\numberline {4.1} Regression analysis predictors}{}}
\@writefile{toc}{\contentsline {subsection}{\numberline {4.2} Matchers}{}}
\@writefile{toc}{\contentsline {subsection}{\numberline {4.3} Linear regression modeling}{}}
\@writefile{toc}{\contentsline {section}{\numberline {5} Results}{}}
\newlabel{sec:results}{{5}{}}
\@writefile{toc}{\contentsline {subsection}{\numberline {5.1} Regression analysis results for selected models}{}}
\@writefile{toc}{\contentsline {subsubsection}{\numberline {5.1.1} Daugman's method}{}}
\@writefile{lot}{\contentsline {table}{\numberline {1}{\ignorespaces $P$-values for $\beta _{i}$ estimates and $R^2$ statistics in selected regression models ('--' when parameter is not present).}}{}}
\newlabel{daugman_results}{{1}{}}
\@writefile{toc}{\contentsline {subsubsection}{\numberline {5.1.2} BiomIrisSDK}{}}
\@writefile{toc}{\contentsline {subsubsection}{\numberline {5.1.3} VeriEye SDK}{}}
\@writefile{toc}{\contentsline {subsection}{\numberline {5.2} Proposed final regression models}{}}
\bibcite{SafirFlom}{1}
\bibcite{DaugmanPatent}{2}
\bibcite{gonzalez2008}{3}
\bibcite{kevin2009factors}{4}
\bibcite{Baker2009}{5}
\bibcite{Baker2013}{6}
\bibcite{Fenker2011}{7}
\bibcite{Fenker2012}{8}
\bibcite{Czajka2013}{9}
\bibcite{Sazonova}{10}
\bibcite{Schegrova}{11}
\bibcite{ISO}{12}
\bibcite{BiomIrisSDK}{13}
\bibcite{CzajkaPacut}{14}
\bibcite{VeriEye}{15}
\bibcite{Brize}{16}
\bibcite{DaugmanArticle}{17}
\@writefile{toc}{\contentsline {section}{\numberline {6} Discussion}{}}
\@writefile{toc}{\contentsline {section}{\numberline {7} References}{}}
